IS415-GAA-WY - Take-Home Exercise 3
…
primary_sch_sf <- primary_sch_sf %>%
  select(c('Primary school', 'geometry'))

primary_sch_sf

Simple feature collection with 181 features and 1 field
Geometry type: POINT
Dimension:     XY
Bounding box:  xmin: 103.6878 ymin: 1.274958 xmax: 103.9628 ymax: 1.456608
Projected CRS: SVY21 / Singapore TM
# A tibble: 181 × 2
   `Primary school`                          geometry
   <chr>                                  <POINT [m]>
 1 Admiralty Primary School          (103.8 1.442635)
 2 Ahmad Ibrahim Primary School   (103.8329 1.433153)
 3 Ai Tong School                  (103.833 1.360583)
 4 Alexandra Primary School       (103.8244 1.291334)
 5 Anchor Green Primary School     (103.8872 1.39037)
 6 Anderson Primary School        (103.8414 1.384264)
 7 Ang Mo Kio Primary School      (103.8396 1.369322)
 8 Anglo-Chinese School (Junior)    (103.841 1.30935)
 9 Anglo-Chinese School (Primary) (103.8356 1.318371)
10 Angsana Primary School         (103.9518 1.348553)
# … with 171 more rows
…
